{
  "meta" : {
    "view" : {
      "id" : "c7cz-29ak",
      "name" : "Urban Orchards",
      "attribution" : "Mayor's Office of Food Initiatives",
      "attributionLink" : "http://cityofboston.gov/food",
      "averageRating" : 0,
      "category" : "Health",
      "createdAt" : 1352322197,
      "description" : "Urban orchards and fruit trees in and around the city of Boston. Please note: locations have not been verified, and may be on private property, inaccessible, not bearing fruit, or no longer there. Always confirm permission to enter and forage with any property owners. Use utmost caution in identifying and consuming any fruit. Feel free to contact us with any information pertaining to current conditions, and we will update the data.",
      "displayType" : "table",
      "downloadCount" : 1240,
      "indexUpdatedAt" : 1414539080,
      "licenseId" : "CC0_10",
      "newBackend" : false,
      "numberOfComments" : 0,
      "oid" : 5444001,
      "publicationAppendEnabled" : false,
      "publicationDate" : 1379524667,
      "publicationGroup" : 486850,
      "publicationStage" : "published",
      "rowsUpdatedAt" : 1379342863,
      "rowsUpdatedBy" : "qyzb-duix",
      "tableId" : 1153222,
      "totalTimesRated" : 0,
      "viewCount" : 1656,
      "viewLastModified" : 1379524667,
      "viewType" : "tabular",
      "columns" : [ {
        "id" : -1,
        "name" : "sid",
        "dataTypeName" : "meta_data",
        "fieldName" : ":sid",
        "position" : 0,
        "renderTypeName" : "meta_data",
        "format" : { }
      }, {
        "id" : -1,
        "name" : "id",
        "dataTypeName" : "meta_data",
        "fieldName" : ":id",
        "position" : 0,
        "renderTypeName" : "meta_data",
        "format" : { }
      }, {
        "id" : -1,
        "name" : "position",
        "dataTypeName" : "meta_data",
        "fieldName" : ":position",
        "position" : 0,
        "renderTypeName" : "meta_data",
        "format" : { }
      }, {
        "id" : -1,
        "name" : "created_at",
        "dataTypeName" : "meta_data",
        "fieldName" : ":created_at",
        "position" : 0,
        "renderTypeName" : "meta_data",
        "format" : { }
      }, {
        "id" : -1,
        "name" : "created_meta",
        "dataTypeName" : "meta_data",
        "fieldName" : ":created_meta",
        "position" : 0,
        "renderTypeName" : "meta_data",
        "format" : { }
      }, {
        "id" : -1,
        "name" : "updated_at",
        "dataTypeName" : "meta_data",
        "fieldName" : ":updated_at",
        "position" : 0,
        "renderTypeName" : "meta_data",
        "format" : { }
      }, {
        "id" : -1,
        "name" : "updated_meta",
        "dataTypeName" : "meta_data",
        "fieldName" : ":updated_meta",
        "position" : 0,
        "renderTypeName" : "meta_data",
        "format" : { }
      }, {
        "id" : -1,
        "name" : "meta",
        "dataTypeName" : "meta_data",
        "fieldName" : ":meta",
        "position" : 0,
        "renderTypeName" : "meta_data",
        "format" : { }
      }, {
        "id" : 98792380,
        "name" : "Site",
        "dataTypeName" : "text",
        "fieldName" : "site",
        "position" : 1,
        "renderTypeName" : "text",
        "tableColumnId" : 5056834,
        "width" : 148,
        "cachedContents" : {
          "non_null" : 94,
          "smallest" : "*Indicates location not included in 2012 map ",
          "null" : 0,
          "largest" : "UO93*",
          "top" : [ {
            "count" : 20,
            "item" : "UO83"
          }, {
            "count" : 19,
            "item" : "UO84"
          }, {
            "count" : 18,
            "item" : "UO85"
          }, {
            "count" : 17,
            "item" : "UO86"
          }, {
            "count" : 16,
            "item" : "UO87"
          }, {
            "count" : 15,
            "item" : "UO88"
          }, {
            "count" : 14,
            "item" : "UO89"
          }, {
            "count" : 13,
            "item" : "UO90"
          }, {
            "count" : 12,
            "item" : "UO91"
          }, {
            "count" : 11,
            "item" : "UO92"
          }, {
            "count" : 10,
            "item" : "UO93*"
          }, {
            "count" : 9,
            "item" : "*Indicates location not included in 2012 map "
          } ]
        },
        "format" : { }
      }, {
        "id" : 98792381,
        "name" : "Name",
        "dataTypeName" : "text",
        "fieldName" : "name",
        "position" : 2,
        "renderTypeName" : "text",
        "tableColumnId" : 5056835,
        "width" : 148,
        "cachedContents" : {
          "non_null" : 66,
          "smallest" : "Aberdeen Ave.",
          "null" : 28,
          "largest" : "Winthrop Elementary School",
          "top" : [ {
            "count" : 20,
            "item" : "Fruition Project planting"
          }, {
            "count" : 19,
            "item" : "Mission Hill School Orchard"
          }, {
            "count" : 18,
            "item" : "Allan Crite CG Orchard"
          }, {
            "count" : 17,
            "item" : "Cooper Center Orchard"
          }, {
            "count" : 16,
            "item" : "Shirley-Eustis House Orchard"
          }, {
            "count" : 15,
            "item" : "Roxbury Boys and Girls Club"
          }, {
            "count" : 14,
            "item" : "Warren Gardens Housing Cooperative"
          }, {
            "count" : 13,
            "item" : "Cedar St. lot"
          }, {
            "count" : 12,
            "item" : "Dearborn Middle School"
          }, {
            "count" : 11,
            "item" : "Hawthorne Youth and Community Center"
          }, {
            "count" : 10,
            "item" : "Apple trees"
          }, {
            "count" : 9,
            "item" : "Nuestra Communidad"
          }, {
            "count" : 8,
            "item" : "Avon St. Garden"
          }, {
            "count" : 7,
            "item" : "West Branch Library"
          }, {
            "count" : 6,
            "item" : "Tufts University"
          }, {
            "count" : 5,
            "item" : "Bailey Park"
          }, {
            "count" : 4,
            "item" : "Kenny Park"
          }, {
            "count" : 3,
            "item" : "Osgood St. Garden"
          }, {
            "count" : 2,
            "item" : "Walnut St. CG"
          }, {
            "count" : 1,
            "item" : "Community Growing Center"
          } ]
        },
        "format" : { }
      }, {
        "id" : 98792382,
        "name" : "Location",
        "dataTypeName" : "text",
        "fieldName" : "location",
        "position" : 3,
        "renderTypeName" : "text",
        "tableColumnId" : 5056836,
        "width" : 196,
        "cachedContents" : {
          "non_null" : 93,
          "smallest" : "101 Aberdeen St.",
          "null" : 1,
          "largest" : "Rosseter Ave and Nottingham St.",
          "top" : [ {
            "count" : 20,
            "item" : "23 Granada Park "
          }, {
            "count" : 19,
            "item" : "160 Packard Ave."
          }, {
            "count" : 18,
            "item" : "40 College Ave."
          }, {
            "count" : 17,
            "item" : "70 Belmont St."
          }, {
            "count" : 16,
            "item" : "20 Grove St."
          }, {
            "count" : 15,
            "item" : "4 Osgood St."
          }, {
            "count" : 14,
            "item" : "11 Giles St."
          }, {
            "count" : 13,
            "item" : "22 Vinal Ave."
          }, {
            "count" : 12,
            "item" : "70 Worcester St."
          }, {
            "count" : 11,
            "item" : "1140 Washington St."
          }, {
            "count" : 10,
            "item" : "75 turtle Pond Parkway"
          } ]
        },
        "format" : { }
      }, {
        "id" : 98792383,
        "name" : "Area",
        "dataTypeName" : "text",
        "fieldName" : "area",
        "position" : 4,
        "renderTypeName" : "text",
        "tableColumnId" : 5056837,
        "width" : 148,
        "cachedContents" : {
          "non_null" : 93,
          "smallest" : "Back Bay",
          "null" : 1,
          "largest" : "South End",
          "top" : [ {
            "count" : 20,
            "item" : "Back Bay"
          }, {
            "count" : 19,
            "item" : "Boston"
          }, {
            "count" : 18,
            "item" : "Brookline"
          }, {
            "count" : 17,
            "item" : "Cambridge"
          }, {
            "count" : 16,
            "item" : "Dorchester"
          }, {
            "count" : 15,
            "item" : "East Boston"
          }, {
            "count" : 14,
            "item" : "Grape Island"
          }, {
            "count" : 13,
            "item" : "Jamaica Plain"
          }, {
            "count" : 12,
            "item" : "Mattapan"
          }, {
            "count" : 11,
            "item" : "Mission Hill"
          }, {
            "count" : 10,
            "item" : "North End"
          }, {
            "count" : 9,
            "item" : "Roslindale"
          }, {
            "count" : 8,
            "item" : "Roxbury"
          }, {
            "count" : 7,
            "item" : "Somerville"
          }, {
            "count" : 6,
            "item" : "South End"
          }, {
            "count" : 5,
            "item" : "Hyde Park"
          } ]
        },
        "format" : { }
      }, {
        "id" : 98792384,
        "name" : "ZIP",
        "dataTypeName" : "text",
        "fieldName" : "zip",
        "position" : 5,
        "renderTypeName" : "text",
        "tableColumnId" : 5056840,
        "width" : 136,
        "cachedContents" : {
          "non_null" : 93,
          "smallest" : "MA",
          "null" : 1,
          "largest" : "MA",
          "top" : [ {
            "count" : 20,
            "item" : "MA"
          } ]
        },
        "format" : { }
      }, {
        "id" : 98792385,
        "name" : "Coordinates",
        "dataTypeName" : "text",
        "fieldName" : "coordinates",
        "position" : 6,
        "renderTypeName" : "text",
        "tableColumnId" : 5056838,
        "width" : 232,
        "cachedContents" : {
          "non_null" : 92,
          "smallest" : "2109",
          "null" : 2,
          "largest" : "2445",
          "top" : [ {
            "count" : 20,
            "item" : "2115"
          }, {
            "count" : 19,
            "item" : "2116"
          }, {
            "count" : 18,
            "item" : "2121"
          }, {
            "count" : 17,
            "item" : "2215"
          }, {
            "count" : 16,
            "item" : "2445"
          }, {
            "count" : 15,
            "item" : "2138"
          }, {
            "count" : 14,
            "item" : "2139"
          }, {
            "count" : 13,
            "item" : "2140"
          }, {
            "count" : 12,
            "item" : "2143"
          }, {
            "count" : 11,
            "item" : "2122"
          }, {
            "count" : 10,
            "item" : "2124"
          }, {
            "count" : 9,
            "item" : "2125"
          }, {
            "count" : 8,
            "item" : "2128"
          }, {
            "count" : 7,
            "item" : "2191"
          }, {
            "count" : 6,
            "item" : "2130"
          }, {
            "count" : 5,
            "item" : "2126"
          }, {
            "count" : 4,
            "item" : "2131"
          }, {
            "count" : 3,
            "item" : "2120"
          }, {
            "count" : 2,
            "item" : "2109"
          }, {
            "count" : 1,
            "item" : "2119"
          } ]
        },
        "format" : { }
      }, {
        "id" : 98792386,
        "name" : "Notes",
        "dataTypeName" : "text",
        "fieldName" : "notes",
        "position" : 7,
        "renderTypeName" : "text",
        "tableColumnId" : 5056839,
        "width" : 160,
        "cachedContents" : {
          "non_null" : 93,
          "smallest" : "42.1112911,-70.7709651",
          "null" : 1,
          "largest" : "42.4079692,-71.1210912",
          "top" : [ {
            "count" : 20,
            "item" : "42.313005,-71.098731"
          }, {
            "count" : 19,
            "item" : "42.4079692,-71.1210912"
          }, {
            "count" : 18,
            "item" : "42.3981288,-71.1217411"
          }, {
            "count" : 17,
            "item" : "42.3878018,-71.1087333"
          }, {
            "count" : 16,
            "item" : "42.3953927,-71.120786"
          }, {
            "count" : 15,
            "item" : "42.3832499,-71.1022969"
          }, {
            "count" : 14,
            "item" : "42.3820155,-71.0971002"
          }, {
            "count" : 13,
            "item" : "42.3831384,-71.0978583"
          }, {
            "count" : 12,
            "item" : "42.2543173,-71.8244381"
          }, {
            "count" : 11,
            "item" : "42.3436506,-71.0662052"
          }, {
            "count" : 10,
            "item" : "42.248383,-71.135171"
          } ]
        },
        "format" : { }
      }, {
        "id" : 98792388,
        "name" : "Map Locations",
        "dataTypeName" : "location",
        "fieldName" : "map_locations",
        "position" : 9,
        "renderTypeName" : "location",
        "tableColumnId" : 6763867,
        "width" : 100,
        "cachedContents" : {
          "non_null" : 94,
          "smallest" : {
            "human_address" : "{\"address\":\"\",\"city\":\"\",\"state\":\"\",\"zip\":\"\"}"
          },
          "null" : 0,
          "largest" : {
            "longitude" : "-71.07344760199965",
            "latitude" : "42.30031184900048",
            "human_address" : "{\"address\":\"Rosseter Ave and Nottingham St.\",\"city\":\"Dorchester\",\"state\":\"MA\",\"zip\":\"2121\"}"
          },
          "top" : [ {
            "count" : 20,
            "item" : {
              "longitude" : "42.39538900000048",
              "latitude" : "-71.11645999999962",
              "human_address" : "{\"address\":\"42.395389,-71.11646\",\"city\":\"Somerville\",\"state\":\"MA\",\"zip\":\"2144\"}"
            }
          }, {
            "count" : 19,
            "item" : {
              "longitude" : "-71.12186669699963",
              "latitude" : "42.40686608200048",
              "human_address" : "{\"address\":\"160 Packard Ave.\",\"city\":\"Somerville\",\"state\":\"MA\",\"zip\":\"2155\"}"
            }
          }, {
            "count" : 18,
            "item" : {
              "longitude" : "-71.12140720299965",
              "latitude" : "42.398033195000494",
              "human_address" : "{\"address\":\"40 College Ave.\",\"city\":\"Somerville\",\"state\":\"MA\",\"zip\":\"2413\"}"
            }
          }, {
            "count" : 17,
            "item" : {
              "longitude" : "-71.10869852199966",
              "latitude" : "42.38788298500049",
              "human_address" : "{\"address\":\"70 Belmont St.\",\"city\":\"Somerville\",\"state\":\"MA\",\"zip\":\"2413\"}"
            }
          }, {
            "count" : 16,
            "item" : {
              "longitude" : "-71.12075946699963",
              "latitude" : "42.3953625150005",
              "human_address" : "{\"address\":\"20 Grove St.\",\"city\":\"Somerville\",\"state\":\"MA\",\"zip\":\"2413\"}"
            }
          }, {
            "count" : 15,
            "item" : {
              "longitude" : "-71.10236624799967",
              "latitude" : "42.38347082200045",
              "human_address" : "{\"address\":\"4 Osgood St.\",\"city\":\"Somerville\",\"state\":\"MA\",\"zip\":\"2413\"}"
            }
          }, {
            "count" : 14,
            "item" : {
              "longitude" : "-71.09826072699963",
              "latitude" : "42.386681352000494",
              "human_address" : "{\"address\":\"11 Giles St.\",\"city\":\"Somerville\",\"state\":\"MA\",\"zip\":\"2413\"}"
            }
          }, {
            "count" : 13,
            "item" : {
              "longitude" : "-71.09776020899966",
              "latitude" : "42.38328264800049",
              "human_address" : "{\"address\":\"22 Vinal Ave.\",\"city\":\"Somerville\",\"state\":\"MA\",\"zip\":\"2413\"}"
            }
          }, {
            "count" : 12,
            "item" : {
              "longitude" : "-71.07776200099966",
              "latitude" : "42.3391641660005",
              "human_address" : "{\"address\":\"70 Worcester St.\",\"city\":\"South End\",\"state\":\"MA\",\"zip\":\"2118\"}"
            }
          }, {
            "count" : 11,
            "item" : {
              "longitude" : "-71.06606098299966",
              "latitude" : "42.343779106000454",
              "human_address" : "{\"address\":\"1140 Washington St.\",\"city\":\"South End\",\"state\":\"MA\",\"zip\":\"2118\"}"
            }
          }, {
            "count" : 10,
            "item" : {
              "longitude" : "-71.13870911099963",
              "latitude" : "42.24861962400047",
              "human_address" : "{\"address\":\"75 turtle Pond Parkway\",\"city\":\"Hyde Park\",\"state\":\"MA\",\"zip\":\"\"}"
            }
          }, {
            "count" : 9,
            "item" : {
              "human_address" : "{\"address\":\"\",\"city\":\"\",\"state\":\"\",\"zip\":\"\"}"
            }
          } ]
        },
        "format" : { },
        "subColumnTypes" : [ "human_address", "latitude", "longitude", "machine_address", "needs_recoding" ]
      }, {
        "id" : 98792538,
        "name" : "Condition",
        "dataTypeName" : "text",
        "description" : "What condition is the orchard in?",
        "fieldName" : "condition",
        "position" : 10,
        "renderTypeName" : "text",
        "tableColumnId" : 14228012,
        "width" : 100,
        "cachedContents" : {
          "non_null" : 22,
          "smallest" : "Overgrown",
          "null" : 72,
          "largest" : "Well Kept",
          "top" : [ {
            "count" : 20,
            "item" : "Somewhat well-kept"
          }, {
            "count" : 19,
            "item" : "Very Overgrown"
          }, {
            "count" : 18,
            "item" : "Well Kept"
          }, {
            "count" : 17,
            "item" : "Overgrown"
          } ]
        },
        "format" : { }
      }, {
        "id" : 98793585,
        "name" : "Fruit",
        "dataTypeName" : "text",
        "description" : "What kinds of fruit are in the orchard? ",
        "fieldName" : "fruit",
        "position" : 11,
        "renderTypeName" : "text",
        "tableColumnId" : 14228023,
        "width" : 100,
        "cachedContents" : {
          "non_null" : 47,
          "smallest" : "Apple",
          "null" : 47,
          "largest" : "Various berries",
          "top" : [ {
            "count" : 20,
            "item" : "Nectarine tree"
          }, {
            "count" : 19,
            "item" : "Apple trees"
          }, {
            "count" : 18,
            "item" : "Mulberry tree"
          }, {
            "count" : 17,
            "item" : "Mulberry trees"
          }, {
            "count" : 16,
            "item" : "Black cherry trees"
          }, {
            "count" : 15,
            "item" : "Cherry, peach, nectarine trees"
          }, {
            "count" : 14,
            "item" : "Cherry trees"
          }, {
            "count" : 13,
            "item" : "Red currant bushes"
          }, {
            "count" : 12,
            "item" : "Apple"
          }, {
            "count" : 11,
            "item" : "Unclear"
          }, {
            "count" : 10,
            "item" : "Grape vines"
          }, {
            "count" : 9,
            "item" : "Various berries"
          }, {
            "count" : 8,
            "item" : "Peach tree"
          }, {
            "count" : 7,
            "item" : "Cherry tree"
          }, {
            "count" : 6,
            "item" : "Blueberry bushes"
          }, {
            "count" : 5,
            "item" : "Peach and plum trees"
          }, {
            "count" : 4,
            "item" : "Pear trees"
          }, {
            "count" : 3,
            "item" : "Peach, Pear"
          }, {
            "count" : 2,
            "item" : "Pear, Apple"
          }, {
            "count" : 1,
            "item" : "Cherry"
          } ]
        },
        "format" : { }
      }, {
        "id" : 98795278,
        "name" : "Property Type",
        "dataTypeName" : "text",
        "description" : "What type of property is the orchard on? ",
        "fieldName" : "property_type",
        "position" : 12,
        "renderTypeName" : "text",
        "tableColumnId" : 14228066,
        "width" : 100,
        "cachedContents" : {
          "non_null" : 22,
          "smallest" : "Community Garden",
          "null" : 72,
          "largest" : "Vacant Land",
          "top" : [ {
            "count" : 20,
            "item" : "Park"
          }, {
            "count" : 19,
            "item" : "Vacant Land"
          }, {
            "count" : 18,
            "item" : "Community Garden"
          }, {
            "count" : 17,
            "item" : "School Orchard"
          }, {
            "count" : 16,
            "item" : "Private"
          }, {
            "count" : 15,
            "item" : "Urban Wild"
          }, {
            "count" : 14,
            "item" : "Urban Orchard"
          }, {
            "count" : 13,
            "item" : "Community Orchard"
          } ]
        },
        "format" : { }
      } ],
      "grants" : [ {
        "inherited" : false,
        "type" : "viewer",
        "flags" : [ "public" ]
      } ],
      "license" : {
        "name" : "Creative Commons 1.0 Universal (Public Domain Dedication)",
        "logoUrl" : "images/licenses/ccZero.png",
        "termsLink" : "http://creativecommons.org/publicdomain/zero/1.0/legalcode"
      },
      "metadata" : {
        "custom_fields" : {
          "Data Owner" : {
            "Owner" : "Office of the Mayor"
          }
        },
        "renderTypeConfig" : {
          "visible" : {
            "table" : true
          }
        },
        "availableDisplayTypes" : [ "table", "fatrow", "page" ],
        "rdfSubject" : "0"
      },
      "owner" : {
        "id" : "qyzb-duix",
        "displayName" : "GGoldleaf",
        "roleName" : "publisher",
        "screenName" : "GGoldleaf",
        "rights" : [ "create_datasets", "edit_others_datasets", "edit_nominations", "approve_nominations", "moderate_comments", "manage_stories", "feature_items", "change_configurations", "view_domain", "view_others_datasets", "create_pages", "edit_pages", "view_goals", "view_dashboards", "edit_goals", "edit_dashboards", "manage_provenance", "view_story", "view_unpublished_story", "view_all_dataset_status_logs" ]
      },
      "query" : { },
      "rights" : [ "read" ],
      "tableAuthor" : {
        "id" : "qyzb-duix",
        "displayName" : "GGoldleaf",
        "roleName" : "publisher",
        "screenName" : "GGoldleaf",
        "rights" : [ "create_datasets", "edit_others_datasets", "edit_nominations", "approve_nominations", "moderate_comments", "manage_stories", "feature_items", "change_configurations", "view_domain", "view_others_datasets", "create_pages", "edit_pages", "view_goals", "view_dashboards", "edit_goals", "edit_dashboards", "manage_provenance", "view_story", "view_unpublished_story", "view_all_dataset_status_logs" ]
      },
      "tags" : [ "food", "food initiatives", "fruit", "orchards", "trees", "green streets", "urban agriculture" ],
      "flags" : [ "default" ]
    }
  },
  "data" : [ [ 67, "16F58F08-D7A0-47DD-A6CD-08A60EF919A8", 67, 1379342852, "699782", 1379342862, "699782", "{\n}", "UO67", null, "805 South St.", "Roslindale", "MA", "2131", "42.2879829,-71.1305749", [ "{\"address\":\"805 South St.\",\"city\":\"Roslindale\",\"state\":\"MA\",\"zip\":\"2131\"}", "42.287779335000494", "-71.13073052599964", null, false ], null, "Pear trees", null ]
, [ 94, "3AA8349A-D82D-4282-9C0E-C130673DE8BE", 94, 1379342852, "699782", 1379342852, "699782", "{\n}", "*Indicates location not included in 2012 map ", null, null, null, null, null, null, [ "{\"address\":\"\",\"city\":\"\",\"state\":\"\",\"zip\":\"\"}", null, null, null, true ], null, null, null ]
, [ 44, "022688C8-2141-457D-B42A-4736B8A5D559", 44, 1379342851, "699782", 1379342862, "699782", "{\n}", "UO44", "Curley School Orchard", "493 Centre St.", "Jamaica Plain", "MA", "2130", "42.318622,-71.113604", [ "{\"address\":\"493 Centre St.\",\"city\":\"Jamaica Plain\",\"state\":\"MA\",\"zip\":\"2130\"}", "42.31834938600048", "-71.11245071899964", null, false ], "Well Kept", "Apple", "School Orchard" ]
, [ 37, "058C4DC3-28AC-48BA-AE0C-73D0E1782894", 37, 1379342851, "699782", 1379342862, "699782", "{\n}", "UO37", "Nonquit Green", "5 Nonquit St.", "Dorchester", "MA", "2125", "42.318092,-71.0683433", [ "{\"address\":\"5 Nonquit St.\",\"city\":\"Dorchester\",\"state\":\"MA\",\"zip\":\"2125\"}", "42.318009463000465", "-71.06821114099967", null, false ], null, null, null ]
, [ 74, "08E2FAF3-A7A9-4968-A36B-0C1242115533", 74, 1379342852, "699782", 1379342862, "699782", "{\n}", "UO74", "Dearborn Middle School", "35 Greenville St.", "Roxbury", "MA", "2119", "42.326453,-71.080922", [ "{\"address\":\"35 Greenville St.\",\"city\":\"Roxbury\",\"state\":\"MA\",\"zip\":\"2119\"}", "42.32616992600049", "-71.08035043599966", null, false ], "Well Kept", "Cherry, Apple", "Community Garden" ]
, [ 58, "0BB96C59-7325-4B66-8894-A8834E29087E", 58, 1379342851, "699782", 1379342862, "699782", "{\n}", "UO58", null, "400 Amory St.", "Jamaica Plain", "MA", "2130", "42.3113866,-71.1061593", [ "{\"address\":\"400 Amory St.\",\"city\":\"Jamaica Plain\",\"state\":\"MA\",\"zip\":\"2130\"}", "42.31144951900046", "-71.10627102799964", null, false ], null, "Blueberry bushes", null ]
, [ 26, "0BE87A54-5C0B-42F4-B575-529C79320149", 26, 1379342851, "699782", 1379342862, "699782", "{\n}", "UO26", "Mt. Calvary Church", "9-15 Otisfield St.", "Dorchester", "MA", "2121", "42.312471,-71.080975", [ "{\"address\":\"9-15 Otisfield St.\",\"city\":\"Dorchester\",\"state\":\"MA\",\"zip\":\"2121\"}", "42.313324613000475", "-71.08091192299963", null, false ], null, null, null ]
, [ 11, "0FD1109A-F513-4C4E-A277-DA35D31F2B52", 11, 1379342851, "699782", 1379342862, "699782", "{\n}", "UO11", "Fruition Project planting", "42.35341,-71.110809", "Cambridge", "MA", "2139", "42.1112911,-70.7709651", [ "{\"address\":\"42.35341,-71.110809\",\"city\":\"Cambridge\",\"state\":\"MA\",\"zip\":\"2139\"}", "-71.11080899999962", "42.35341000000045", null, false ], null, null, null ]
, [ 72, "1395A6D8-57A5-48E6-B2B7-0EA79DEA818A", 72, 1379342852, "699782", 1379342862, "699782", "{\n}", "UO72", "Warren Gardens Housing Cooperative", "250 Warren St.", "Roxbury", "MA", "2119", "42.32224,-71.081795", [ "{\"address\":\"250 Warren St.\",\"city\":\"Roxbury\",\"state\":\"MA\",\"zip\":\"2119\"}", "42.322139242000446", "-71.08206042399962", null, false ], null, null, null ]
, [ 17, "17703A5A-0C31-4058-BAAA-4A77EF36A478", 17, 1379342851, "699782", 1379342862, "699782", "{\n}", "UO17", "Peabody School", "70 Rindge Ave.", "Cambridge", "MA", "2139", "42.391468,-71.128342", [ "{\"address\":\"70 Rindge Ave.\",\"city\":\"Cambridge\",\"state\":\"MA\",\"zip\":\"2139\"}", "42.3927933760005", "-71.12844277799962", null, false ], null, null, null ]
, [ 8, "1855FCFF-CC0F-440B-9722-21C6CCF1B897", 8, 1379342851, "699782", 1379342862, "699782", "{\n}", "UO8", null, "140 Aberdeen Ave.", "Cambridge", "MA", "2138", "42.3784269,-71.1473197", [ "{\"address\":\"140 Aberdeen Ave.\",\"city\":\"Cambridge\",\"state\":\"MA\",\"zip\":\"2138\"}", "42.377908807000495", "-71.14707834299963", null, false ], null, "Cherry, peach, nectarine trees", null ]
, [ 4, "19F1DEBD-6B79-4FEB-8F91-EB1C056512C3", 4, 1379342851, "699782", 1379342862, "699782", "{\n}", "UO4", null, "219 Park Dr.", "Boston", "MA", "2215", "42.3418695,-71.1012031", [ "{\"address\":\"219 Park Dr.\",\"city\":\"Boston\",\"state\":\"MA\",\"zip\":\"2215\"}", "42.34183403200046", "-71.10108118999966", null, false ], null, "Mulberry tree", null ]
, [ 32, "1F396B39-ED19-4B07-B589-EAF9044BE33B", 32, 1379342851, "699782", 1379342862, "699782", "{\n}", "UO32", "Franklin Hill Development", "86 American Legion Highway ", "Dorchester", "MA", "2124", "42.296725,-71.091148", [ "{\"address\":\"86 American Legion Highway\",\"city\":\"Dorchester\",\"state\":\"MA\",\"zip\":\"2124\"}", "42.296989528000495", "-71.09120032699963", null, false ], null, null, null ]
, [ 16, "23A03136-7502-4212-A66C-A417A7339698", 16, 1379342851, "699782", 1379342862, "699782", "{\n}", "UO16", "Aberdeen Ave.", "101 Aberdeen St.", "Cambridge", "MA", "2139", "42.378059,-71.146628", [ "{\"address\":\"101 Aberdeen St.\",\"city\":\"Cambridge\",\"state\":\"MA\",\"zip\":\"2139\"}", "42.36559310000047", "-71.10414786199965", null, false ], null, null, null ]
, [ 69, "23AE63E3-E75C-468E-8BA3-9C347A4E1007", 69, 1379342852, "699782", 1379342862, "699782", "{\n}", "UO69", "Cooper Center Orchard", "32 Linwood St.", "Roxbury", "MA", "2119", "42.3281132,-71.0937758", [ "{\"address\":\"32 Linwood St.\",\"city\":\"Roxbury\",\"state\":\"MA\",\"zip\":\"2119\"}", "42.32813917700048", "-71.09387016499966", null, false ], "Well Kept", "Peach, Pear", "Urban Orchard" ]
, [ 13, "27091604-46A8-4689-8A67-DFDC3444E633", 13, 1379342851, "699782", 1379342862, "699782", "{\n}", "UO13", "Fruition Project planting", "Ellery St. between Broadway and Cambridge St.", "Cambridge", "MA", "2139", "42.374076,-71.108961", [ "{\"address\":\"Ellery St. between Broadway and Cambridge St.\",\"city\":\"Cambridge\",\"state\":\"MA\",\"zip\":\"2139\"}", "42.36559310000047", "-71.10414786199965", null, false ], null, null, null ]
, [ 30, "28CD20DB-3230-414F-ACC0-32FCC889F320", 30, 1379342851, "699782", 1379342862, "699782", "{\n}", "UO30", "Nightingale CG", "512 Park St.", "Dorchester", "MA", "2124", "42.2952616,-71.0733826", [ "{\"address\":\"512 Park St.\",\"city\":\"Dorchester\",\"state\":\"MA\",\"zip\":\"2124\"}", "42.29527954100047", "-71.07341023999965", null, false ], null, null, null ]
, [ 55, "2ACC48C4-BD3D-48C1-BA0A-3E6F34F8FD65", 55, 1379342851, "699782", 1379342862, "699782", "{\n}", "UO55", "Loring-Greenough House", "12 South St.", "Jamaica Plain", "MA", "2130", "42.309498,-71.1148879", [ "{\"address\":\"12 South St.\",\"city\":\"Jamaica Plain\",\"state\":\"MA\",\"zip\":\"2130\"}", "42.30947911600049", "-71.11550080999967", null, false ], null, null, null ]
, [ 51, "2FBBF818-7725-4AA3-BD0B-8EC84B014D70", 51, 1379342851, "699782", 1379342862, "699782", "{\n}", "UO51", "Oakdale CG", "2 Lawndale Terrace", "Jamaica Plain", "MA", "2130", "42.31421,-71.106064", [ "{\"address\":\"2 Lawndale Terrace\",\"city\":\"Jamaica Plain\",\"state\":\"MA\",\"zip\":\"2130\"}", "42.31410898700045", "-71.10617077999967", null, false ], "Overgrown", "Unclear", "Community Garden" ]
, [ 3, "34934A91-E0DE-4575-B85E-9BE801FA9EE9", 3, 1379342851, "699782", 1379342862, "699782", "{\n}", "UO3", null, "41-73 Ellington St.", "Boston", "MA", "2121", "42.3009777,-71.0827011", [ "{\"address\":\"41-73 Ellington St.\",\"city\":\"Boston\",\"state\":\"MA\",\"zip\":\"2121\"}", "42.30196842400045", "-71.08387691199965", null, false ], null, "Apple trees", null ]
, [ 35, "349FE637-B601-4253-A735-2A2456B1EA36", 35, 1379342851, "699782", 1379342862, "699782", "{\n}", "UO35", "Edward Everett Square Orchard", "735 Columbia Rd.", "Dorchester", "MA", "2125", "42.319641,-71.059989", [ "{\"address\":\"735 Columbia Rd.\",\"city\":\"Dorchester\",\"state\":\"MA\",\"zip\":\"2125\"}", "42.32001598500045", "-71.06008150599962", null, false ], null, null, null ]
, [ 10, "4741F1D6-A234-43AF-AF0A-08C2164DA5AE", 10, 1379342851, "699782", 1379342862, "699782", "{\n}", "UO10", null, "220 Garden St.", "Cambridge", "MA", "2138", "42.3862507,-71.1339742", [ "{\"address\":\"220 Garden St.\",\"city\":\"Cambridge\",\"state\":\"MA\",\"zip\":\"2138\"}", "42.38639435400046", "-71.13445561499964", null, false ], null, "Apple trees", null ]
, [ 84, "569017D7-091E-4E12-9238-CC11F9FA01B7", 84, 1379342852, "699782", 1379342862, "699782", "{\n}", "UO84", "Tufts University", "160 Packard Ave.", "Somerville", "MA", "2155", "42.4079692,-71.1210912", [ "{\"address\":\"160 Packard Ave.\",\"city\":\"Somerville\",\"state\":\"MA\",\"zip\":\"2155\"}", "42.40686608200048", "-71.12186669699963", null, false ], null, null, null ]
, [ 20, "5715D191-8086-48B9-AB4D-0AB08EA39DA0", 20, 1379342851, "699782", 1379342862, "699782", "{\n}", "UO20", null, "318 Beacon St.", "Cambridge", "MA", "2143", "42.352931,-71.082943", [ "{\"address\":\"318 Beacon St.\",\"city\":\"Cambridge\",\"state\":\"MA\",\"zip\":\"2143\"}", "42.38442932300046", "-71.11394061899966", null, false ], null, "Cherry trees", null ]
, [ 47, "575B4651-BEC6-4D94-99B0-B0A379556748", 47, 1379342851, "699782", 1379342862, "699782", "{\n}", "UO47", "Agassiz Elementary School", "20 Child St.", "Jamaica Plain", "MA", "2130", "42.307303,-71.113748", [ "{\"address\":\"20 Child St.\",\"city\":\"Jamaica Plain\",\"state\":\"MA\",\"zip\":\"2130\"}", "42.306798907000484", "-71.11364102599964", null, false ], null, null, null ]
, [ 93, "5BE2B535-8FCC-495E-969F-A61DD6C6022F", 93, 1379342852, "699782", 1379342862, "699782", "{\n}", "UO93*", "Stony Brook Orchard", "75 turtle Pond Parkway", "Hyde Park", "MA", null, "42.248383,-71.135171", [ "{\"address\":\"75 turtle Pond Parkway\",\"city\":\"Hyde Park\",\"state\":\"MA\",\"zip\":\"\"}", "42.24861962400047", "-71.13870911099963", null, false ], null, null, null ]
, [ 36, "60298D40-26ED-44AA-A35B-0157EEEB9EF6", 36, 1379342851, "699782", 1379342862, "699782", "{\n}", "UO36", "Russell School Orchard", "736 Columbia Rd.", "Dorchester", "MA", "2125", "42.3200773,-71.0601249", [ "{\"address\":\"736 Columbia Rd.\",\"city\":\"Dorchester\",\"state\":\"MA\",\"zip\":\"2125\"}", "42.32010237100047", "-71.06030639699964", null, false ], null, null, null ]
, [ 57, "612D324D-E8C9-44F5-88F9-DF0780BA7737", 57, 1379342851, "699782", 1379342862, "699782", "{\n}", "UO57", null, "32 Lawndale Terrace", "Jamaica Plain", "MA", "2130", "42.3141041,-71.1061838", [ "{\"address\":\"32 Lawndale Terrace\",\"city\":\"Jamaica Plain\",\"state\":\"MA\",\"zip\":\"2130\"}", "42.31389847800045", "-71.10601585599966", null, false ], null, "Cherry tree", null ]
, [ 52, "64F2EC28-73A5-4534-8CAA-D2FD9F44E10E", 52, 1379342851, "699782", 1379342862, "699782", "{\n}", "UO52", "Granada Park & CG", "23 Granada Park ", "Jamaica Plain", "MA", "2130", "42.313005,-71.098731", [ "{\"address\":\"23 Granada Park&nbsp;\",\"city\":\"Jamaica Plain\",\"state\":\"MA\",\"zip\":\"2130\"}", "42.31311412400049", "-71.11095648599962", null, false ], "Somewhat well-kept", "Unclear", "Community Garden" ]
, [ 86, "676F5D16-5544-4A1E-B9CD-DF7A97F383A4", 86, 1379342852, "699782", 1379342862, "699782", "{\n}", "UO86", "Bailey Park", "70 Belmont St.", "Somerville", "MA", "2413", "42.3878018,-71.1087333", [ "{\"address\":\"70 Belmont St.\",\"city\":\"Somerville\",\"state\":\"MA\",\"zip\":\"2413\"}", "42.38788298500049", "-71.10869852199966", null, false ], null, null, null ]
, [ 43, "679C0247-BDC2-4BE9-810E-074960940455", 43, 1379342851, "699782", 1379342862, "699782", "{\n}", "UO43", "Hennigan School", "200 Heath St.", "Jamaica Plain", "MA", "2130", "42.326026,-71.106821", [ "{\"address\":\"200 Heath St.\",\"city\":\"Jamaica Plain\",\"state\":\"MA\",\"zip\":\"2130\"}", "42.32625980500046", "-71.10595069299967", null, false ], null, null, null ]
, [ 27, "6B2B6DD6-A3DB-45ED-9A49-00A5792A7B35", 27, 1379342851, "699782", 1379342862, "699782", "{\n}", "UO27", null, "26 Normandy St.", "Dorchester", "MA", "2121", "42.3112213,-71.0783139", [ "{\"address\":\"26 Normandy St.\",\"city\":\"Dorchester\",\"state\":\"MA\",\"zip\":\"2121\"}", "42.310862718000465", "-71.07859122199966", null, false ], null, "Apple trees", null ]
, [ 77, "6E8A677A-E3A4-41A6-A7B8-B8598FF63BBF", 77, 1379342852, "699782", 1379342862, "699782", "{\n}", "UO77", "Nuestra Communidad", "391 Dudley St.", "Roxbury", "MA", "2119", "42.313132,-71.078439", [ "{\"address\":\"391 Dudley St.\",\"city\":\"Roxbury\",\"state\":\"MA\",\"zip\":\"2119\"}", "42.32628738000045", "-71.07560891099962", null, false ], "Well Kept", "Unclear", "Community Garden" ]
, [ 63, "6F5D9158-57AE-4C1A-BA3A-81284BD521FD", 63, 1379342852, "699782", 1379342862, "699782", "{\n}", "UO63", "Mission Hill School Orchard", "67 Allegheny St.", "Mission Hill", "MA", "2120", "42.330541,-71.0992236", [ "{\"address\":\"67 Allegheny St.\",\"city\":\"Mission Hill\",\"state\":\"MA\",\"zip\":\"2120\"}", "42.3307558570005", "-71.09991761699962", null, false ], null, null, null ]
, [ 9, "7097839E-A7E5-44D4-AE92-F79DF203018C", 9, 1379342851, "699782", 1379342862, "699782", "{\n}", "UO9", null, "445 Concord Ave.", "Cambridge", "MA", "2138", "42.3863784,-71.139171", [ "{\"address\":\"445 Concord Ave.\",\"city\":\"Cambridge\",\"state\":\"MA\",\"zip\":\"2138\"}", "42.38625516600047", "-71.13941500399966", null, false ], null, "Cherry trees", null ]
, [ 80, "70CD5F9E-6270-45FB-86B8-62924BAD0987", 80, 1379342852, "699782", 1379342862, "699782", "{\n}", "UO80", null, "213 Summer St.", "Somerville", "MA", "2143", "42.388444,-71.11024", [ "{\"address\":\"213 Summer St.\",\"city\":\"Somerville\",\"state\":\"MA\",\"zip\":\"2143\"}", "42.3882790990005", "-71.11040080899966", null, false ], null, "Pear trees", null ]
, [ 6, "72E7580A-5949-47AA-83B2-6980D79D6E21", 6, 1379342851, "699782", 1379342862, "699782", "{\n}", "UO6", null, "606 Brookline Ave.", "Brookline", "MA", "2445", "42.3337419,-71.1127581", [ "{\"address\":\"606 Brookline Ave.\",\"city\":\"Brookline\",\"state\":\"MA\",\"zip\":\"2445\"}", "42.333489502000475", "-71.11298094699964", null, false ], null, "Apple trees", null ]
, [ 49, "775CBE31-1EC8-4596-9BA6-306B316295BF", 49, 1379342851, "699782", 1379342862, "699782", "{\n}", "UO49", "New Day CG", "65 Day St.", "Jamaica Plain", "MA", "2130", "42.3244122,-71.1083721", [ "{\"address\":\"65 Day St.\",\"city\":\"Jamaica Plain\",\"state\":\"MA\",\"zip\":\"2130\"}", "42.324639696000474", "-71.10803056399965", null, false ], "Somewhat well-kept", "Unclear", "Community Garden" ]
, [ 90, "78F5993C-41AA-4CFE-B201-95921C00539D", 90, 1379342852, "699782", 1379342862, "699782", "{\n}", "UO90", "Community Growing Center", "22 Vinal Ave.", "Somerville", "MA", "2413", "42.3831384,-71.0978583", [ "{\"address\":\"22 Vinal Ave.\",\"city\":\"Somerville\",\"state\":\"MA\",\"zip\":\"2413\"}", "42.38328264800049", "-71.09776020899966", null, false ], null, null, null ]
, [ 62, "7B894E15-3324-40DA-BD3A-5ED5E872335D", 62, 1379342852, "699782", 1379342862, "699782", "{\n}", "UO62", "McLaughlin Playground Orchard", "209 Parker Hill Ave.", "Mission Hill", "MA", "2120", "42.3290416,-71.1029733", [ "{\"address\":\"209 Parker Hill Ave.\",\"city\":\"Mission Hill\",\"state\":\"MA\",\"zip\":\"2120\"}", "42.32905885100047", "-71.10313182599964", null, false ], null, null, null ]
, [ 22, "7C3ACC8F-7F1C-4686-B320-2235F2493635", 22, 1379342851, "699782", 1379342862, "699782", "{\n}", "UO22", "Bowdoin St. Lot", "3 Nottingham St.", "Dorchester", "MA", "2121", "42.300619,-71.073096", [ "{\"address\":\"3 Nottingham St.\",\"city\":\"Dorchester\",\"state\":\"MA\",\"zip\":\"2121\"}", "42.300659547000464", "-71.07338027999964", null, false ], "Very Overgrown", "Unclear", "Vacant Land" ]
, [ 34, "7E57A4DF-2586-4866-8F78-3E783EE94232", 34, 1379342851, "699782", 1379342862, "699782", "{\n}", "UO34", null, "492 Vinson St.", "Dorchester", "MA", "2124", "42.298048,-71.0650131", [ "{\"address\":\"492 Vinson St.\",\"city\":\"Dorchester\",\"state\":\"MA\",\"zip\":\"2124\"}", "42.29718095700048", "-71.06565801399967", null, false ], null, "Grape vines", null ]
, [ 21, "7F4F55C8-4953-4FB2-9CCA-CB6E60F94267", 21, 1379342851, "699782", 1379342862, "699782", "{\n}", "UO21", "Holland School Orchard", "85 Olney St.", "Dorchester", "MA", "2121", "42.305476,-71.0728447", [ "{\"address\":\"85 Olney St.\",\"city\":\"Dorchester\",\"state\":\"MA\",\"zip\":\"2121\"}", "42.3054894280005", "-71.07287303399966", null, false ], "Somewhat well-kept", "Apple", "Park" ]
, [ 71, "812A8D5C-E4EC-474B-A3A8-B1B4011BEE4B", 71, 1379342852, "699782", 1379342862, "699782", "{\n}", "UO71", "Roxbury Boys and Girls Club", "115 Warren St. ", "Roxbury", "MA", "2119", "42.326929,-71.084142", [ "{\"address\":\"115 Warren St.\",\"city\":\"Roxbury\",\"state\":\"MA\",\"zip\":\"2119\"}", "42.32705948800049", "-71.08329105999962", null, false ], "Somewhat well-kept", "Cherry", "Community Garden" ]
, [ 25, "8146960F-146F-42A7-8C8A-E60BDA38F985", 25, 1379342851, "699782", 1379342862, "699782", "{\n}", "UO25", "John P. Holland Elementary School", "85 Olney St.", "Dorchester", "MA", "2121", "42.305476,-71.0728447", [ "{\"address\":\"85 Olney St.\",\"city\":\"Dorchester\",\"state\":\"MA\",\"zip\":\"2121\"}", "42.3054894280005", "-71.07287303399966", null, false ], null, null, null ]
, [ 60, "85F93E95-D577-47CB-9E73-83963F6C347B", 60, 1379342852, "699782", 1379342862, "699782", "{\n}", "UO60", "City Natives", "30 Edgewater Drive", "Mattapan", "MA", "2126", "42.266037,-71.09544", [ "{\"address\":\"30 Edgewater Drive\",\"city\":\"Mattapan\",\"state\":\"MA\",\"zip\":\"2126\"}", "42.26619939000045", "-71.09560089299964", null, false ], null, null, null ]
, [ 61, "871221D1-65DA-42B9-BE02-75AB528C3A8A", 61, 1379342852, "699782", 1379342862, "699782", "{\n}", "UO61", "Boston Nature Center Orchard", "500 Walk Hill St.", "Mattapan", "MA", "2131", "42.284624,-71.1010972", [ "{\"address\":\"500 Walk Hill St.\",\"city\":\"Mattapan\",\"state\":\"MA\",\"zip\":\"2131\"}", "42.28310374500046", "-71.10064261999963", null, false ], null, null, null ]
, [ 73, "8BDAE520-870E-41DC-ABBA-19D383D3F332", 73, 1379342852, "699782", 1379342862, "699782", "{\n}", "UO73", "Cedar St. lot", "Centre St. & Cedar St.", "Roxbury", "MA", "2119", "42.3276594,-71.0956717", [ "{\"address\":\"Centre St. &amp; Cedar St.\",\"city\":\"Roxbury\",\"state\":\"MA\",\"zip\":\"2119\"}", "42.32403312300045", "-71.08572938399965", null, false ], "Overgrown", "Unclear", "Private" ]
, [ 89, "8F6AA5D0-B325-4807-8E74-59C2F44B29D1", 89, 1379342852, "699782", 1379342862, "699782", "{\n}", "UO89", "Walnut St. CG", "11 Giles St.", "Somerville", "MA", "2413", "42.3820155,-71.0971002", [ "{\"address\":\"11 Giles St.\",\"city\":\"Somerville\",\"state\":\"MA\",\"zip\":\"2413\"}", "42.386681352000494", "-71.09826072699963", null, false ], null, null, null ]
, [ 66, "8F9A99D8-14B2-4D15-9368-E1D369AC2F0D", 66, 1379342852, "699782", 1379342862, "699782", "{\n}", "UO66", null, "541 Commercial St.", "North End", "MA", "2109", "42.3682669,-71.0565359", [ "{\"address\":\"541 Commercial St.\",\"city\":\"North End\",\"state\":\"MA\",\"zip\":\"2109\"}", "42.36833617500048", "-71.05633809699964", null, false ], "Well Kept", "Apple trees", "Park" ]
, [ 64, "938C64FD-7697-4A89-849F-6EAAD9AB2EC7", 64, 1379342852, "699782", 1379342862, "699782", "{\n}", "UO64", null, "5 Sewall St.", "Mission Hill", "MA", "2120", "42.331522,-71.098208", [ "{\"address\":\"5 Sewall St.\",\"city\":\"Mission Hill\",\"state\":\"MA\",\"zip\":\"2120\"}", "42.33147964300048", "-71.09808060499967", null, false ], null, "Peach and plum trees", null ]
, [ 75, "93E3819C-C046-43F1-BDEA-7EFDB56F224B", 75, 1379342852, "699782", 1379342862, "699782", "{\n}", "UO75", "Hawthorne Youth and Community Center", "9 Fulda St.", "Roxbury", "MA", "2119", "42.3233075,-71.0923386", [ "{\"address\":\"9 Fulda St.\",\"city\":\"Roxbury\",\"state\":\"MA\",\"zip\":\"2119\"}", "42.32314875800046", "-71.09234924299966", null, false ], null, null, null ]
, [ 24, "9780379A-B439-4493-8A14-627DEDCB2732", 24, 1379342851, "699782", 1379342862, "699782", "{\n}", "UO24", "Eldon St. Lot", "Eldon St and Washington St.", "Dorchester", "MA", "2121", "42.3029646,-71.0782466", [ "{\"address\":\"Eldon St and Washington St.\",\"city\":\"Dorchester\",\"state\":\"MA\",\"zip\":\"2121\"}", "42.302960043000496", "-71.07821700899967", null, false ], null, null, null ]
, [ 41, "99A1AC0E-EDDD-4DE1-B787-414CB9A24394", 41, 1379342851, "699782", 1379342862, "699782", "{\n}", "UO41", "Heritage Apartments", "209 Sumner St.", "East Boston", "MA", "2128", "42.3687101,-71.0393517", [ "{\"address\":\"209 Sumner St.\",\"city\":\"East Boston\",\"state\":\"MA\",\"zip\":\"2128\"}", "42.36864049400049", "-71.03943156399964", null, false ], null, null, null ]
, [ 18, "9ACF1DEE-0582-413C-8310-7AF0944F3D9B", 18, 1379342851, "699782", 1379342862, "699782", "{\n}", "UO18", null, "40 Norris St.", "Cambridge", "MA", "2140", "42.395135,-71.12966", [ "{\"address\":\"40 Norris St.\",\"city\":\"Cambridge\",\"state\":\"MA\",\"zip\":\"2140\"}", "42.395488929000464", "-71.12958054799964", null, false ], null, "Red currant bushes", null ]
, [ 45, "9C688279-C2F1-45F9-851D-C2757336AEDF", 45, 1379342851, "699782", 1379342862, "699782", "{\n}", "UO45", "Southwest Corridor Community Farm", "57 Lamartine St.", "Jamaica Plain", "MA", "2130", "42.314158,-71.107307", [ "{\"address\":\"57 Lamartine St.\",\"city\":\"Jamaica Plain\",\"state\":\"MA\",\"zip\":\"2130\"}", "42.31399952000049", "-71.10724009699965", null, false ], "Somewhat well-kept", "Unclear", "Community Garden" ]
, [ 1, "9D397F2E-44DF-4B51-AFE1-8F403692C597", 1, 1379342851, "699782", 1379342862, "699782", "{\n}", "UO1", "Harvard Club", "407 Newbury St.", "Back Bay", "MA", "2115", "42.3482101,-71.0886075", [ "{\"address\":\"407 Newbury St.\",\"city\":\"Back Bay\",\"state\":\"MA\",\"zip\":\"2115\"}", "42.348106533000475", "-71.08986991099965", null, false ], null, null, null ]
, [ 68, "9E2672BF-C3DC-4589-8C00-4116554D68DC", 68, 1379342852, "699782", 1379342862, "699782", "{\n}", "UO68", "Allan Crite CG Orchard", "107 Cedar St.", "Roxbury", "MA", "2119", "42.327024,-71.0934994", [ "{\"address\":\"107 Cedar St.\",\"city\":\"Roxbury\",\"state\":\"MA\",\"zip\":\"2119\"}", "42.32702952900047", "-71.09349106399964", null, false ], "Very Overgrown", "Unclear", "Urban Wild" ]
, [ 19, "A085983B-3A71-4995-8879-08D58A3E8AA0", 19, 1379342851, "699782", 1379342862, "699782", "{\n}", "UO19", null, "89 Walden St.", "Cambridge", "MA", "2140", "42.3881211,-71.1256205", [ "{\"address\":\"89 Walden St.\",\"city\":\"Cambridge\",\"state\":\"MA\",\"zip\":\"2140\"}", "42.38800946500049", "-71.12575036199962", null, false ], null, "Apple trees", null ]
, [ 46, "A2C42A32-E7BE-4EFB-933D-D464F57E734D", 46, 1379342851, "699782", 1379342862, "699782", "{\n}", "UO46", "Egleston Community Orchard", "195 Boylston St.", "Jamaica Plain", "MA", "2130", "42.3141788,-71.10164", [ "{\"address\":\"195 Boylston St.\",\"city\":\"Jamaica Plain\",\"state\":\"MA\",\"zip\":\"2130\"}", "42.31427952500047", "-71.10146024899967", null, false ], "Somewhat well-kept", "Apple", "Community Garden" ]
, [ 88, "A4DF7D7E-50AF-4670-88D7-67FE175B34BC", 88, 1379342852, "699782", 1379342862, "699782", "{\n}", "UO88", "Osgood St. Garden", "4 Osgood St.", "Somerville", "MA", "2413", "42.3832499,-71.1022969", [ "{\"address\":\"4 Osgood St.\",\"city\":\"Somerville\",\"state\":\"MA\",\"zip\":\"2413\"}", "42.38347082200045", "-71.10236624799967", null, false ], null, null, null ]
, [ 23, "A5E53847-74CD-466A-A49F-181996C2DD61", 23, 1379342851, "699782", 1379342862, "699782", "{\n}", "UO23", "Rosseter Ave. Lot", "Rosseter Ave and Nottingham St.", "Dorchester", "MA", "2121", "42.300251,-71.0734975", [ "{\"address\":\"Rosseter Ave and Nottingham St.\",\"city\":\"Dorchester\",\"state\":\"MA\",\"zip\":\"2121\"}", "42.30031184900048", "-71.07344760199965", null, false ], null, null, null ]
, [ 81, "A77C1BD9-76BE-41D1-B253-BAACE5C7455D", 81, 1379342852, "699782", 1379342862, "699782", "{\n}", "UO81", null, "17 Lowell St.", "Somerville", "MA", "2143", "42.3851736,-71.1114643", [ "{\"address\":\"17 Lowell St.\",\"city\":\"Somerville\",\"state\":\"MA\",\"zip\":\"2143\"}", "42.38514250200046", "-71.11147498199966", null, false ], null, "Plum trees", null ]
, [ 91, "A9A70FC9-2627-4F9E-B349-8024C4C39D68", 91, 1379342852, "699782", 1379342862, "699782", "{\n}", "UO91", "Hurley School", "70 Worcester St.", "South End", "MA", "2118", "42.2543173,-71.8244381", [ "{\"address\":\"70 Worcester St.\",\"city\":\"South End\",\"state\":\"MA\",\"zip\":\"2118\"}", "42.3391641660005", "-71.07776200099966", null, false ], null, null, null ]
, [ 42, "AA34F012-66B9-4D8B-AB07-592E6309C980", 42, 1379342851, "699782", 1379342862, "699782", "{\n}", "UO42", "Grape Island", "Grape Island", "Grape Island", "MA", "2191", "42.269291,-70.921319", [ "{\"address\":\"Grape Island\",\"city\":\"Grape Island\",\"state\":\"MA\",\"zip\":\"2191\"}", "42.2448714680005", "-70.94235723799966", null, false ], null, null, null ]
, [ 12, "AAA4CFEC-4150-4DC0-A1A3-085099195747", 12, 1379342851, "699782", 1379342862, "699782", "{\n}", "UO12", "Fruition Project planting", "795 Massachusetts Ave.", "Cambridge", "MA", "2139", "42.3668146,-71.1060367", [ "{\"address\":\"795 Massachusetts Ave.\",\"city\":\"Cambridge\",\"state\":\"MA\",\"zip\":\"2139\"}", "42.366779814000495", "-71.10599102299966", null, false ], null, null, null ]
, [ 87, "AC1E3754-9156-40B3-971C-51B544D017D6", 87, 1379342852, "699782", 1379342862, "699782", "{\n}", "UO87", "Kenny Park", "20 Grove St.", "Somerville", "MA", "2413", "42.3953927,-71.120786", [ "{\"address\":\"20 Grove St.\",\"city\":\"Somerville\",\"state\":\"MA\",\"zip\":\"2413\"}", "42.3953625150005", "-71.12075946699963", null, false ], null, null, null ]
, [ 82, "AE18583A-5B01-49CC-9C4A-E81AAFB4341F", 82, 1379342852, "699782", 1379342862, "699782", "{\n}", "UO82", "West Branch Library", "40 College Ave.", "Somerville", "MA", "2144", "42.3981288,-71.1217411", [ "{\"address\":\"40 College Ave.\",\"city\":\"Somerville\",\"state\":\"MA\",\"zip\":\"2144\"}", "42.39801934200045", "-71.12138090699966", null, false ], null, null, null ]
, [ 50, "AE4E56E9-9691-45EC-BEC4-BBAE389C3F2A", 50, 1379342851, "699782", 1379342862, "699782", "{\n}", "UO50", "Blessed Sacrament Church", " 365 Centre St. ", "Jamaica Plain", "MA", "2130", "42.32266,-71.1082519", [ "{\"address\":\"365 Centre St.\",\"city\":\"Jamaica Plain\",\"state\":\"MA\",\"zip\":\"2130\"}", "42.322389288000466", "-71.10831056799964", null, false ], null, null, null ]
, [ 31, "B6E8C404-B754-4780-9F44-6E7F4D2A1029", 31, 1379342851, "699782", 1379342862, "699782", "{\n}", "UO31", "Marshall Elementary School", "35 Westville St. ", "Dorchester", "MA", "2124", "42.2999666,-71.0710316", [ "{\"address\":\"35 Westville St.\",\"city\":\"Dorchester\",\"state\":\"MA\",\"zip\":\"2124\"}", "42.30009716100045", "-71.07091158199967", null, false ], "Somewhat well-kept", "Unclear", "Community Garden" ]
, [ 79, "B78F185E-3415-4E0A-BAE5-EC742271F479", 79, 1379342852, "699782", 1379342862, "699782", "{\n}", "UO79", "Avon St. Garden", "117 Summer St. ", "Somerville", "MA", "2143", "42.385599,-71.102829", [ "{\"address\":\"117 Summer St.&nbsp;\",\"city\":\"Somerville\",\"state\":\"MA\",\"zip\":\"2143\"}", "42.38207370700047", "-71.10098904399968", null, false ], null, null, null ]
, [ 56, "B9340E36-5943-43A0-937F-6B6326BC746A", 56, 1379342851, "699782", 1379342863, "699782", "{\n}", "UO56", null, "305 South St.", "Jamaica Plain", "MA", "2130", "42.300436,-71.1168143", [ "{\"address\":\"305 South St.\",\"city\":\"Jamaica Plain\",\"state\":\"MA\",\"zip\":\"2130\"}", "42.300366141000495", "-71.11699743799966", null, false ], null, "Peach tree", null ]
, [ 28, "BBA1DBFD-1F35-41C2-B34F-625F98C33A2D", 28, 1379342851, "699782", 1379342863, "699782", "{\n}", "UO28", "Charles St. CG Orchard", "68 Charles St.", "Dorchester", "MA", "2122", "42.2996855,-71.0645622", [ "{\"address\":\"68 Charles St.\",\"city\":\"Dorchester\",\"state\":\"MA\",\"zip\":\"2122\"}", "42.29979994400048", "-71.06460104099966", null, false ], null, null, null ]
, [ 2, "BD8B87F6-2DD6-4CB6-A97A-D5FDF5E5E6C2", 2, 1379342851, "699782", 1379342863, "699782", "{\n}", "UO2", null, "311 Marlborough St.", "Boston", "MA", "2116", "42.351565,-71.084433", [ "{\"address\":\"311 Marlborough St.\",\"city\":\"Boston\",\"state\":\"MA\",\"zip\":\"2116\"}", "42.35133923000046", "-71.08434078999966", null, false ], null, "Nectarine tree", null ]
, [ 38, "BFA031A0-9490-4882-821F-6B641CB3903C", 38, 1379342851, "699782", 1379342863, "699782", "{\n}", "UO38", "Winthrop Elementary School", "35 Brookford St.", "Dorchester", "MA", "2125", "42.3183043,-71.0751264", [ "{\"address\":\"35 Brookford St.\",\"city\":\"Dorchester\",\"state\":\"MA\",\"zip\":\"2125\"}", "42.31840595700049", "-71.07556049299967", null, false ], null, null, null ]
, [ 5, "C0978920-1908-4BA2-9348-1CEDB1A3CA40", 5, 1379342851, "699782", 1379342863, "699782", "{\n}", "UO5", null, "1171 Boylston St.", "Boston", "MA", "2215", "42.3518773,-71.0707478", [ "{\"address\":\"1171 Boylston St.\",\"city\":\"Boston\",\"state\":\"MA\",\"zip\":\"2215\"}", "42.34649964400046", "-71.09332052599967", null, false ], null, "Mulberry trees", null ]
, [ 59, "C2E83AFF-9558-484D-A094-98A717EB8522", 59, 1379342852, "699782", 1379342863, "699782", "{\n}", "UO59", null, "113 Wachusett St.", "Jamaica Plain", "MA", "2130", "42.2946496,-71.1153111", [ "{\"address\":\"113 Wachusett St.\",\"city\":\"Jamaica Plain\",\"state\":\"MA\",\"zip\":\"2130\"}", "42.294502553000484", "-71.11559194699964", null, false ], null, "Grape vines", null ]
, [ 54, "C93339E8-A155-4108-BCDB-E64603842BF6", 54, 1379342851, "699782", 1379342863, "699782", "{\n}", "UO54", null, "11 Green St.", "Jamaica Plain", "MA", "2130", "42.313135,-71.1135094", [ "{\"address\":\"11 Green St.\",\"city\":\"Jamaica Plain\",\"state\":\"MA\",\"zip\":\"2130\"}", "42.31300971000047", "-71.11331032099963", null, false ], "Well Kept", "Various berries", "Private" ]
, [ 53, "CE328945-4935-447C-BC27-50FB3D8BBAAC", 53, 1379342851, "699782", 1379342863, "699782", "{\n}", "UO53", "Chilcott Place", "23 Granada Park ", "Jamaica Plain", "MA", "2130", "42.313005,-71.098731", [ "{\"address\":\"23 Granada Park&nbsp;\",\"city\":\"Jamaica Plain\",\"state\":\"MA\",\"zip\":\"2130\"}", "42.31311412400049", "-71.11095648599962", null, false ], "Somewhat well-kept", "Unclear", "Community Garden" ]
, [ 76, "D0C4130A-311D-4BB0-ADD8-92165B03593A", 76, 1379342852, "699782", 1379342863, "699782", "{\n}", "UO76", "Apple trees", "182 Cedar St.", "Roxbury", "MA", "2119", "42.3280853,-71.0968355", [ "{\"address\":\"182 Cedar St.\",\"city\":\"Roxbury\",\"state\":\"MA\",\"zip\":\"2119\"}", "42.32793032900048", "-71.09646312599966", null, false ], "Somewhat well-kept", "Cherry", "Private" ]
, [ 83, "D0FC1516-B199-4DC6-AFCF-FFB10DFD0AB9", 83, 1379342852, "699782", 1379342863, "699782", "{\n}", "UO83", null, "42.395389,-71.11646", "Somerville", "MA", "2144", "42.395389,-71.11646", [ "{\"address\":\"42.395389,-71.11646\",\"city\":\"Somerville\",\"state\":\"MA\",\"zip\":\"2144\"}", "-71.11645999999962", "42.39538900000048", null, false ], null, "Peach and apple trees, blueberry bushes", null ]
, [ 29, "D43CBC6E-15F4-4322-AA1B-AF32315E67A2", 29, 1379342851, "699782", 1379342863, "699782", "{\n}", "UO29", "Neighborhood House Charter School", "21 Queen St.", "Dorchester", "MA", "2122", "42.2931669,-71.053358", [ "{\"address\":\"21 Queen St.\",\"city\":\"Dorchester\",\"state\":\"MA\",\"zip\":\"2122\"}", "42.29341975700049", "-71.05292035399964", null, false ], null, null, null ]
, [ 65, "D65C6EC1-AA3B-4F55-A29F-F101CBF7B30C", 65, 1379342852, "699782", 1379342863, "699782", "{\n}", "UO65", null, "10 Bucknam St.", "Mission Hill", "MA", "2130", "42.327238,-71.104454", [ "{\"address\":\"10 Bucknam St.\",\"city\":\"Mission Hill\",\"state\":\"MA\",\"zip\":\"2130\"}", "42.31311412400049", "-71.11095648599962", null, false ], null, "Apple trees", null ]
, [ 39, "D9F83D5E-64DD-437F-995F-80FFEB22108B", 39, 1379342851, "699782", 1379342863, "699782", "{\n}", "UO39", "Everett Elementary School", "71 Pleasant St.", "Dorchester", "MA", "2125", "42.3137204,-71.0597187", [ "{\"address\":\"71 Pleasant St.\",\"city\":\"Dorchester\",\"state\":\"MA\",\"zip\":\"2125\"}", "42.31410615800047", "-71.05983202599964", null, false ], null, null, null ]
, [ 85, "DCAEABF5-EC66-402A-A6CA-871F9852760F", 85, 1379342852, "699782", 1379342863, "699782", "{\n}", "UO85", "West Branch Library", "40 College Ave.", "Somerville", "MA", "2413", "42.3981288,-71.1217411", [ "{\"address\":\"40 College Ave.\",\"city\":\"Somerville\",\"state\":\"MA\",\"zip\":\"2413\"}", "42.398033195000494", "-71.12140720299965", null, false ], null, null, null ]
, [ 48, "DFFB84D2-45FB-49F5-AF38-4CA40FCE7842", 48, 1379342851, "699782", 1379342863, "699782", "{\n}", "UO48", "Nira Rock Urban Wild", "18 Nira Ave.", "Jamaica Plain", "MA", "2130", "42.325539,-71.1094272", [ "{\"address\":\"18 Nira Ave.\",\"city\":\"Jamaica Plain\",\"state\":\"MA\",\"zip\":\"2130\"}", "42.325579958000446", "-71.10926004799967", null, false ], "Somewhat well-kept", "Unclear", "Park" ]
, [ 15, "E2CEF9EB-5C69-4477-BC72-6211520FB4E6", 15, 1379342851, "699782", 1379342863, "699782", "{\n}", "UO15", "Morse School", "40 Granite St.", "Cambridge", "MA", "2139", "42.35569,-71.112298", [ "{\"address\":\"40 Granite St.\",\"city\":\"Cambridge\",\"state\":\"MA\",\"zip\":\"2139\"}", "42.356708866000474", "-71.11329073199965", null, false ], null, null, null ]
, [ 92, "EECB8A48-B588-4222-93B8-DCA39659A013", 92, 1379342852, "699782", 1379342863, "699782", "{\n}", "UO92", "Peters Park CG", "1140 Washington St.", "South End", "MA", "2118", "42.3436506,-71.0662052", [ "{\"address\":\"1140 Washington St.\",\"city\":\"South End\",\"state\":\"MA\",\"zip\":\"2118\"}", "42.343779106000454", "-71.06606098299966", null, false ], null, null, null ]
, [ 40, "F3207B22-18F6-476F-AEB7-0D7AD496BE2E", 40, 1379342851, "699782", 1379342863, "699782", "{\n}", "UO40", "Apple trees", "200 Marginal St.", "East Boston", "MA", "2128", "42.3645746,-71.0342293", [ "{\"address\":\"200 Marginal St.\",\"city\":\"East Boston\",\"state\":\"MA\",\"zip\":\"2128\"}", "42.36451812900049", "-71.03403027799965", null, false ], "Somewhat well-kept", "Apple", "Vacant Land" ]
, [ 70, "F379E795-6707-4208-B106-5E4E1D51E1B9", 70, 1379342852, "699782", 1379342863, "699782", "{\n}", "UO70", "Shirley-Eustis House Orchard", "31 Shirley St.", "Roxbury", "MA", "2119", "42.3236909,-71.0718998", [ "{\"address\":\"31 Shirley St.\",\"city\":\"Roxbury\",\"state\":\"MA\",\"zip\":\"2119\"}", "42.323640981000494", "-71.07194704299962", null, false ], "Well Kept", "Pear, Apple", "Community Orchard" ]
, [ 78, "F7EE92FF-184A-4480-BEB5-DBE87C16C43C", 78, 1379342852, "699782", 1379342863, "699782", "{\n}", "UO78", null, "67 Florence St.", "Somerville", "MA", "2139", "42.384528,-71.082117", [ "{\"address\":\"67 Florence St.\",\"city\":\"Somerville\",\"state\":\"MA\",\"zip\":\"2139\"}", "42.3585263490005", "-71.11359498199965", null, false ], null, "Berries", null ]
, [ 33, "F9F39F1E-F441-47E6-B10F-89BEB83507E1", 33, 1379342851, "699782", 1379342863, "699782", "{\n}", "UO33", "Franklin Field Housing Development", "5 Ames St.", "Dorchester", "MA", "2124", "42.2904264,-71.0867009", [ "{\"address\":\"5 Ames St.\",\"city\":\"Dorchester\",\"state\":\"MA\",\"zip\":\"2124\"}", "42.29052349000045", "-71.08648835399964", null, false ], null, null, null ]
, [ 7, "FE1DDA50-A899-4F47-A037-14CB4BE715DF", 7, 1379342851, "699782", 1379342863, "699782", "{\n}", "UO7", null, "6 Parkway Rd.", "Brookline", "MA", "2445", "42.3352603,-71.1114951", [ "{\"address\":\"6 Parkway Rd.\",\"city\":\"Brookline\",\"state\":\"MA\",\"zip\":\"2445\"}", "42.335199211000486", "-71.11141020799965", null, false ], null, "Black cherry trees", null ]
, [ 14, "FFFA4806-6234-4F1A-88CD-B297D62502F3", 14, 1379342851, "699782", 1379342863, "699782", "{\n}", "UO14", "North Cambridge Catholic High School", "40 Norris St.", "Cambridge", "MA", "2139", "42.395135,-71.12966", [ "{\"address\":\"40 Norris St.\",\"city\":\"Cambridge\",\"state\":\"MA\",\"zip\":\"2139\"}", "42.39535821700048", "-71.12975661799965", null, false ], null, null, null ]
 ]
}